com\concept\utils\DirectoryUtil.class
com\concept\utils\ValidatorUtil.class
com\concept\utils\CDIUtil.class
com\concept\utils\HashUtil.class
com\concept\utils\URLUtil.class
com\concept\utils\exception\ValidationException.class
com\concept\utils\DateTimeUtil.class
